Country_Region,Date,Confirmed,Deaths,Recovered
Germany,02-01-2020,8,0,0
Germany,03-01-2020,130,0,16
Germany,04-01-2020,77872,920,18700
Germany,05-01-2020,164077,6736,126900
Germany,06-01-2020,183594,8555,165632
Germany,07-01-2020,195893,8995,179100
Germany,08-01-2020,211005,9154,192636
Germany,09-01-2020,246015,9307,218403
Germany,10-01-2020,295539,9509,258220
Germany,11-01-2020,552060,10541,363545
Germany,12-01-2020,1094678,17177,769380
Germany,01-01-2021,1762637,34145,1388744
Germany,02-01-2021,2232327,58059,1967132
Germany,03-01-2021,2455569,70514,2260719
Germany,04-01-2021,2866323,76823,2552020
