Country_Region,Date,Confirmed,Deaths,Recovered
Italy,02-01-2020,2,0,0
Italy,03-01-2020,1694,34,83
Italy,04-01-2020,110574,13155,16847
Italy,05-01-2020,207428,28236,78249
Italy,06-01-2020,233197,33475,158355
Italy,07-01-2020,240760,34788,190717
Italy,08-01-2020,247832,35146,200229
Italy,09-01-2020,270189,35491,207944
Italy,10-01-2020,317409,35918,228844
Italy,11-01-2020,709335,38826,292380
Italy,12-01-2020,1620901,56361,784595
Italy,01-01-2021,2129376,74621,1479988
Italy,02-01-2021,2560957,88845,2024523
Italy,03-01-2021,2938371,97945,2416093
Italy,04-01-2021,3607083,109847,2933757
