Country_Region,Date,Confirmed,Deaths,Recovered
Japan,01-22-2020,2,0,0
Japan,01-23-2020,1,0,0
Japan,01-24-2020,2,0,0
Japan,01-25-2020,2,0,0
Japan,01-26-2020,4,0,1
Japan,01-27-2020,4,0,1
Japan,01-28-2020,7,0,1
Japan,01-29-2020,7,0,1
Japan,01-30-2020,11,0,1
Japan,01-31-2020,15,0,1
Japan,02-01-2020,20,0,1
Japan,02-02-2020,20,0,1
Japan,02-03-2020,20,0,1
Japan,02-04-2020,22,0,1
Japan,02-05-2020,22,0,1
Japan,02-06-2020,45,0,1
Japan,02-07-2020,25,0,1
Japan,02-08-2020,25,0,1
Japan,02-09-2020,26,0,1
Japan,02-10-2020,26,0,4
Japan,02-11-2020,26,0,9
Japan,02-12-2020,28,0,9
Japan,02-13-2020,28,1,9
Japan,02-14-2020,29,1,9
Japan,02-15-2020,43,1,12
Japan,02-16-2020,59,1,12
Japan,02-17-2020,66,1,12
Japan,02-18-2020,74,1,13
Japan,02-19-2020,84,1,18
Japan,02-20-2020,94,1,18
Japan,02-21-2020,105,1,22
Japan,02-22-2020,122,1,22
Japan,02-23-2020,147,1,22
Japan,02-24-2020,159,1,22
Japan,02-25-2020,170,1,22
Japan,02-26-2020,189,2,22
Japan,02-27-2020,214,4,22
Japan,02-28-2020,228,4,22
Japan,02-29-2020,241,5,32
Japan,03-01-2020,256,6,32
Japan,03-02-2020,274,6,32
Japan,03-03-2020,293,6,43
Japan,03-04-2020,331,6,43
Japan,03-05-2020,360,6,43
Japan,03-06-2020,420,6,46
Japan,03-07-2020,461,6,76
Japan,03-08-2020,502,6,76
Japan,03-09-2020,511,17,76
Japan,03-10-2020,581,10,101
Japan,03-11-2020,639,15,118
Japan,03-12-2020,639,16,118
Japan,03-13-2020,701,19,118
Japan,03-14-2020,773,22,118
Japan,03-15-2020,839,22,118
Japan,03-16-2020,825,27,144
Japan,03-17-2020,878,29,144
Japan,03-18-2020,889,29,144
Japan,03-19-2020,924,29,150
Japan,03-20-2020,963,33,191
Japan,03-21-2020,1007,35,232
Japan,03-22-2020,1086,36,235
Japan,03-23-2020,1128,42,235
Japan,03-24-2020,1193,43,285
Japan,03-25-2020,1307,45,310
Japan,03-26-2020,1387,47,359
Japan,03-27-2020,1468,49,372
Japan,03-28-2020,1693,52,404
Japan,03-29-2020,1866,54,424
Japan,03-30-2020,1866,54,424
Japan,03-31-2020,1953,56,424
Japan,04-01-2020,2178,57,472
Japan,04-02-2020,2495,62,472
Japan,04-03-2020,2617,63,514
Japan,04-04-2020,3139,77,514
Japan,04-05-2020,3139,77,514
Japan,04-06-2020,3654,85,575
Japan,04-07-2020,3906,92,592
Japan,04-08-2020,4257,93,622
Japan,04-09-2020,4667,94,632
Japan,04-10-2020,5530,99,685
Japan,04-11-2020,6005,99,762
Japan,04-12-2020,6748,108,762
Japan,04-13-2020,7370,123,784
Japan,04-14-2020,7645,143,799
Japan,04-15-2020,8100,146,853
Japan,04-16-2020,8626,178,901
Japan,04-17-2020,9787,190,935
Japan,04-18-2020,10296,222,1069
Japan,04-19-2020,10797,236,1159
Japan,04-20-2020,10797,236,1159
Japan,04-21-2020,11135,263,1239
Japan,04-22-2020,11512,281,1356
Japan,04-23-2020,12368,328,1494
Japan,04-24-2020,12829,345,1530
Japan,04-25-2020,13231,360,1656
Japan,04-26-2020,13441,372,1809
Japan,04-27-2020,14153,385,1899
Japan,04-28-2020,13736,394,1899
Japan,04-29-2020,13895,413,2368
Japan,04-30-2020,14088,430,2460
Japan,05-01-2020,14305,455,2975
Japan,05-02-2020,14571,474,3205
Japan,05-03-2020,14877,487,3981
Japan,05-04-2020,15078,536,4156
Japan,05-05-2020,15253,556,4496
Japan,05-06-2020,15253,556,4496
Japan,05-07-2020,15477,577,4918
Japan,05-08-2020,15575,590,5146
Japan,05-09-2020,15663,607,5906
Japan,05-10-2020,15777,624,8127
Japan,05-11-2020,15847,633,8293
Japan,05-12-2020,15968,657,8531
Japan,05-13-2020,16049,678,8920
Japan,05-14-2020,16120,697,9868
Japan,05-15-2020,16203,713,10338
Japan,05-16-2020,16237,725,10338
Japan,05-17-2020,16285,744,11153
Japan,05-18-2020,16305,749,11564
Japan,05-19-2020,16367,768,11564
Japan,05-20-2020,16367,768,11564
Japan,05-21-2020,16424,777,12672
Japan,05-22-2020,16513,796,13005
Japan,05-23-2020,16536,808,13244
Japan,05-24-2020,16550,820,13413
Japan,05-25-2020,16581,830,13612
Japan,05-26-2020,16623,846,13810
Japan,05-27-2020,16651,858,13973
Japan,05-28-2020,16598,881,14096
Japan,05-29-2020,16673,887,14213
Japan,05-30-2020,16716,894,14267
Japan,05-31-2020,16751,898,14342
Japan,06-01-2020,16787,899,14463
Japan,06-02-2020,16837,902,14585
Japan,06-03-2020,16867,905,14702
Japan,06-04-2020,16911,911,14785
Japan,06-05-2020,16958,916,14925
Japan,06-06-2020,17000,915,14927
Japan,06-07-2020,17039,917,14990
Japan,06-08-2020,17060,920,15043
Japan,06-09-2020,17111,920,15141
Japan,06-10-2020,17146,922,15217
Japan,06-11-2020,17187,922,15233
Japan,06-12-2020,17250,924,15362
Japan,06-13-2020,17293,927,15458
Japan,06-14-2020,17369,927,15514
Japan,06-15-2020,17439,929,15567
Japan,06-16-2020,17484,934,15652
Japan,06-17-2020,17530,935,15753
Japan,06-18-2020,17588,935,15753
Japan,06-19-2020,17658,951,15844
Japan,06-20-2020,17725,955,15948
Japan,06-21-2020,17780,955,15948
Japan,06-22-2020,17820,955,15957
Japan,06-23-2020,17879,965,16096
Japan,06-24-2020,17963,967,16101
Japan,06-25-2020,18055,971,16142
Japan,06-26-2020,18162,971,16224
Japan,06-27-2020,18254,971,16293
Japan,06-28-2020,18366,972,16327
Japan,06-29-2020,18476,972,16388
Japan,06-30-2020,18615,972,16458
Japan,07-01-2020,18838,976,16563
Japan,07-02-2020,19055,977,16615
Japan,07-03-2020,19185,977,16721
Japan,07-04-2020,19461,977,16832
Japan,07-05-2020,19668,977,16870
Japan,07-06-2020,19848,978,17007
Japan,07-07-2020,20055,981,17057
Japan,07-08-2020,20261,982,17057
Japan,07-09-2020,20617,982,17412
Japan,07-10-2020,21044,982,17494
Japan,07-11-2020,21430,982,17494
Japan,07-12-2020,21841,983,17845
Japan,07-13-2020,22125,984,18058
Japan,07-14-2020,22437,984,18126
Japan,07-15-2020,23172,984,18126
Japan,07-16-2020,23510,985,18641
Japan,07-17-2020,24104,985,18944
Japan,07-18-2020,24946,986,19211
Japan,07-19-2020,25446,986,19211
Japan,07-20-2020,25706,988,19603
Japan,07-21-2020,26463,988,20001
Japan,07-22-2020,27136,990,20482
Japan,07-23-2020,28114,992,20878
Japan,07-24-2020,28883,994,21173
Japan,07-25-2020,29684,996,21464
Japan,07-26-2020,30548,998,21606
Japan,07-27-2020,31142,998,21970
Japan,07-28-2020,32116,1001,22636
Japan,07-29-2020,33382,1001,23351
Japan,07-30-2020,35144,1007,24024
Japan,07-31-2020,36234,1008,24774
Japan,08-01-2020,37804,1012,25347
Japan,08-02-2020,39116,1013,25748
Japan,08-03-2020,40099,1018,26476
Japan,08-04-2020,41347,1023,27187
Japan,08-05-2020,42686,1028,28020
Japan,08-06-2020,44167,1034,28858
Japan,08-07-2020,45764,1042,30241
Japan,08-08-2020,47342,1042,31248
Japan,08-09-2020,48782,1047,32867
Japan,08-10-2020,49617,1052,33450
Japan,08-11-2020,50302,1058,34136
Japan,08-12-2020,51288,1066,34969
Japan,08-13-2020,52471,1073,36191
Japan,08-14-2020,53818,1080,35498
Japan,08-15-2020,55051,1093,39439
Japan,08-16-2020,56074,1103,40560
Japan,08-17-2020,56717,1112,41591
Japan,08-18-2020,57636,1135,42965
Japan,08-19-2020,58728,1148,43786
Japan,08-20-2020,59900,1157,45110
Japan,08-21-2020,60949,1175,46264
Japan,08-22-2020,61916,1179,47418
Japan,08-23-2020,62658,1188,48319
Japan,08-24-2020,63158,1201,49089
Japan,08-25-2020,63888,1219,50092
Japan,08-26-2020,64779,1230,51407
Japan,08-27-2020,65653,1241,52542
Japan,08-28-2020,66499,1251,53691
Japan,08-29-2020,67353,1271,54883
Japan,08-30-2020,67958,1285,55700
Japan,08-31-2020,68396,1298,56338
Japan,09-01-2020,69023,1313,57503
Japan,09-02-2020,69619,1327,58108
Japan,09-03-2020,70278,1334,58200
Japan,09-04-2020,70866,1352,60093
Japan,09-05-2020,71467,1361,61099
Japan,09-06-2020,71918,1366,61730
Japan,09-07-2020,72213,1377,62190
Japan,09-08-2020,72724,1398,62936
Japan,09-09-2020,73264,1412,63734
Japan,09-10-2020,73916,1416,64489
Japan,09-11-2020,74558,1428,65244
Japan,09-12-2020,75206,1441,65934
Japan,09-13-2020,75646,1448,66524
Japan,09-14-2020,75914,1455,66901
Japan,09-15-2020,76446,1463,66901
Japan,09-16-2020,76997,1481,68110
Japan,09-17-2020,77488,1490,68827
Japan,09-18-2020,78061,1500,69468
Japan,09-19-2020,78662,1504,70051
Japan,09-20-2020,79142,1508,70604
Japan,09-21-2020,79462,1518,70970
Japan,09-22-2020,79773,1519,71214
Japan,09-23-2020,80009,1525,71547
Japan,09-24-2020,80490,1540,72066
Japan,09-25-2020,81054,1544,73016
Japan,09-26-2020,81703,1547,73677
Japan,09-27-2020,82186,1549,73677
Japan,09-28-2020,82484,1561,74495
Japan,09-29-2020,83022,1568,74962
Japan,09-30-2020,83591,1575,75522
Japan,10-01-2020,84244,1580,76081
Japan,10-02-2020,84768,1591,76700
Japan,10-03-2020,85345,1594,76700
Japan,10-04-2020,85746,1598,77851
Japan,10-05-2020,86027,1602,78071
Japan,10-06-2020,86540,1609,78521
Japan,10-07-2020,87039,1614,79123
Japan,10-08-2020,87679,1617,79674
Japan,10-09-2020,88267,1623,80140
Japan,10-10-2020,88962,1626,80798
Japan,10-11-2020,89400,1628,81266
Japan,10-12-2020,89652,1631,81552
Japan,10-13-2020,90153,1635,82063
Japan,10-14-2020,90694,1646,82576
Japan,10-15-2020,91402,1650,83272
Japan,10-16-2020,92044,1664,83882
Japan,10-17-2020,92670,1670,84461
Japan,10-18-2020,93098,1672,84461
Japan,10-19-2020,93408,1676,85310
Japan,10-20-2020,93895,1679,85867
Japan,10-21-2020,94515,1686,86429
Japan,10-22-2020,95134,1697,87022
Japan,10-23-2020,95868,1706,87600
Japan,10-24-2020,96599,1710,88138
Japan,10-25-2020,97095,1716,88610
Japan,10-26-2020,97503,1721,89031
Japan,10-27-2020,98146,1726,89465
Japan,10-28-2020,98877,1731,90118
Japan,10-29-2020,99674,1748,90624
Japan,10-30-2020,100450,1756,91184
Japan,10-31-2020,101327,1769,89765
Japan,11-01-2020,101943,1776,92250
Japan,11-02-2020,102431,1787,92673
Japan,11-03-2020,103309,1794,93133
Japan,11-04-2020,103928,1799,93564
Japan,11-05-2020,104964,1806,94376
Japan,11-06-2020,106136,1810,95010
Japan,11-07-2020,107439,1815,95703
Japan,11-08-2020,108394,1821,96430
Japan,11-09-2020,109191,1834,96684
Japan,11-10-2020,110487,1840,98487
Japan,11-11-2020,112011,1847,98305
Japan,11-12-2020,113655,1854,99282
Japan,11-13-2020,115360,1864,100197
Japan,11-14-2020,117113,1865,101162
Japan,11-15-2020,118611,1874,91954
Japan,11-16-2020,119557,1883,102810
Japan,11-17-2020,121247,1895,103778
Japan,11-18-2020,123477,1908,104837
Japan,11-19-2020,125859,1920,106074
Japan,11-20-2020,128285,1930,107521
Japan,11-21-2020,130871,1932,108981
Japan,11-22-2020,133034,1943,110273
Japan,11-23-2020,134554,1949,111343
Japan,11-24-2020,135786,1963,112385
Japan,11-25-2020,137735,1983,114569
Japan,11-26-2020,140225,1996,116222
Japan,11-27-2020,142778,2028,117709
Japan,11-28-2020,145457,2042,120103
Japan,11-29-2020,147515,2057,121735
Japan,11-30-2020,148962,2076,127289
Japan,12-01-2020,150976,2109,125304
Japan,12-02-2020,153432,2141,127148
Japan,12-03-2020,155938,2174,129085
Japan,12-04-2020,158387,2210,131020
Japan,12-05-2020,160870,2229,133287
Japan,12-06-2020,162917,2259,135121
Japan,12-07-2020,164434,2299,136747
Japan,12-08-2020,166592,2334,138838
Japan,12-09-2020,169429,2376,140466
Japan,12-10-2020,172406,2395,142850
Japan,12-11-2020,175310,2446,144858
Japan,12-12-2020,178272,2462,147368
Japan,12-13-2020,180639,2481,149130
Japan,12-14-2020,182311,2530,150791
Japan,12-15-2020,184752,2581,153363
Japan,12-16-2020,187751,2623,155391
Japan,12-17-2020,190950,2661,158131
Japan,12-18-2020,193753,2709,160630
Japan,12-19-2020,196815,2749,163152
Japan,12-20-2020,199270,2784,165177
Japan,12-21-2020,201074,2833,167357
Japan,12-22-2020,203732,2877,169186
Japan,12-23-2020,207007,2941,171959
Japan,12-24-2020,210769,2967,174723
Japan,12-25-2020,214575,3016,177637
Japan,12-26-2020,218467,3062,180032
Japan,12-27-2020,221412,3100,182440
Japan,12-28-2020,223786,3152,184506
Japan,12-29-2020,227415,3196,186790
Japan,12-30-2020,231271,3243,189310
Japan,12-31-2020,235811,3292,191295
Japan,01-01-2021,239068,3540,193558
Japan,01-02-2021,242097,3571,196264
Japan,01-03-2021,245293,3631,198330
Japan,01-04-2021,248625,3679,200520
Japan,01-05-2021,253571,3755,203265
Japan,01-06-2021,259521,3820,206883
Japan,01-07-2021,267084,3884,210295
Japan,01-08-2021,274947,3962,213581
Japan,01-09-2021,282737,4021,217213
Japan,01-10-2021,288818,4066,220380
Japan,01-11-2021,293746,4114,222807
Japan,01-12-2021,298321,4178,225240
Japan,01-13-2021,304140,4275,228917
Japan,01-14-2021,310734,4341,233509
Japan,01-15-2021,317871,4419,238311
Japan,01-16-2021,324942,4475,243817
Japan,01-17-2021,330715,4524,248332
Japan,01-18-2021,335605,4582,252631
Japan,01-19-2021,340989,4686,257563
Japan,01-20-2021,346508,4778,264831
Japan,01-21-2021,352129,4872,273031
Japan,01-22-2021,357174,4980,279058
Japan,01-23-2021,361928,5063,285366
Japan,01-24-2021,365899,5119,290386
Japan,01-25-2021,368684,5193,290386
Japan,01-26-2021,372545,5297,301384
Japan,01-27-2021,376482,5387,308008
Japan,01-28-2021,380644,5500,314278
Japan,01-29-2021,384180,5597,320092
Japan,01-30-2021,387499,5688,325436
Japan,01-31-2021,390166,5753,325436
Japan,02-01-2021,391956,5833,333969
Japan,02-02-2021,394269,5952,339221
Japan,02-03-2021,396900,6068,343981
Japan,02-04-2021,399492,6172,349176
Japan,02-05-2021,401858,6278,354317
Japan,02-06-2021,404128,6372,358716
Japan,02-07-2021,405765,6424,362075
Japan,02-08-2021,406992,6507,365082
Japan,02-09-2021,408550,6602,368657
Japan,02-10-2021,410434,6723,372379
Japan,02-11-2021,412125,6800,375298
Japan,02-12-2021,413441,6863,377868
Japan,02-13-2021,414803,6928,380413
Japan,02-14-2021,416154,6966,382730
Japan,02-15-2021,417127,7038,384941
Japan,02-16-2021,418435,7139,387584
Japan,02-17-2021,419896,7218,391052
Japan,02-18-2021,421421,7294,393338
Japan,02-19-2021,422718,7360,395336
Japan,02-20-2021,423952,7438,397137
Japan,02-21-2021,424988,7485,398765
Japan,02-22-2021,425725,7541,400094
Japan,02-23-2021,426828,7595,401653
Japan,02-24-2021,427732,7664,403225
Japan,02-25-2021,428816,7738,405101
Japan,02-26-2021,429873,7818,406428
Japan,02-27-2021,431093,7859,407864
Japan,02-28-2021,432090,7889,409163
Japan,03-01-2021,432778,7940,410448
Japan,03-02-2021,433700,8005,411959
Japan,03-03-2021,434944,8068,413178
Japan,03-04-2021,436093,8135,413178
Japan,03-05-2021,437222,8190,415868
Japan,03-06-2021,437634,8196,417136
Japan,03-07-2021,439356,8255,418105
Japan,03-08-2021,439977,8301,418105
Japan,03-09-2021,441152,8359,420104
Japan,03-10-2021,442411,8412,421265
Japan,03-11-2021,443714,8457,422386
Japan,03-12-2021,444977,8515,423463
Japan,03-13-2021,446312,8566,424529
Japan,03-14-2021,447287,8587,425507
Japan,03-15-2021,448000,8625,425507
Japan,03-16-2021,449142,8682,427426
Japan,03-17-2021,450687,8718,428627
Japan,03-18-2021,452147,8750,429742
Japan,03-19-2021,453616,8783,430771
Japan,03-20-2021,455212,8802,431972
Japan,03-21-2021,456318,8821,431972
Japan,03-22-2021,457104,8857,434118
Japan,03-23-2021,458621,8908,435205
Japan,03-24-2021,460595,8929,436307
Japan,03-25-2021,462506,8956,437546
Japan,03-26-2021,464483,8989,438723
Japan,03-27-2021,466563,9021,438723
Japan,03-28-2021,468346,9050,438723
Japan,03-29-2021,469636,9079,442213
Japan,03-30-2021,471777,9112,443484
Japan,03-31-2021,474641,9155,444868
Japan,04-01-2021,477239,9173,446260
Japan,04-02-2021,479953,9191,447559
Japan,04-03-2021,482704,9198,448935
Japan,04-04-2021,485226,9210,450468
Japan,04-05-2021,486792,9229,451999
Japan,04-06-2021,489407,9251,453899
Japan,04-07-2021,492860,9286,455226
Japan,04-08-2021,496351,9311,456894
Japan,04-09-2021,499831,9325,458684
Japan,04-10-2021,503537,9352,458684
Japan,04-11-2021,506237,9369,463569
Japan,04-12-2021,508350,9393,465760
Japan,04-13-2021,511799,9422,468614
Japan,04-14-2021,517281,9471,470851
Japan,04-15-2021,521796,9506,473414
Japan,04-16-2021,526307,9552,475598
Japan,04-17-2021,531109,9593,478222
Japan,04-18-2021,535220,9610,480637
Japan,04-19-2021,537494,9629,482896
Japan,04-20-2021,542467,9682,485920
Japan,04-21-2021,547836,9737,488788
Japan,04-22-2021,553362,9778,491505
Japan,04-23-2021,558376,9834,494726
Japan,04-24-2021,563998,9890,498086
Japan,04-25-2021,568621,9939,501453
Japan,04-26-2021,571904,9968,504582
Japan,04-27-2021,576870,10031,508232
Japan,04-28-2021,580666,10052,508262
